{
    "name": "PermissionManagement",
    "alias": "permissionmanagement",
    "description": "",
    "keywords": [],
    "priority": 0,
    "providers": [
        "Modules\\PermissionManagement\\Providers\\PermissionManagementServiceProvider"
    ],
    "aliases": {},
    "files": [],
    "requires": []
}
